{
    "KPlugin": {
        "Description": "Provides change notification for network folders",
        "Description[ar]": "يقدم تنبيه إذا ما غيرت مجلدات الشبكة",
        "Description[az]": "Şəbəkə qovluqlarındakı dəyişiklik bildirişini göstərir",
        "Description[be]": "Апавяшчае пра змены ў сеткавых каталогах",
        "Description[bg]": "Уведомления за промени в мрежови папки",
        "Description[ca@valencia]": "Proporciona notificacions de canvis en carpetes de xarxa",
        "Description[ca]": "Proporciona notificacions de canvis en carpetes de xarxa",
        "Description[es]": "Proporciona notificación de cambios en carpetas de red",
        "Description[eu]": "Sareko karpetetako aldaketen jakinarazpenak ematen ditu",
        "Description[fr]": "Fournit une notification de modification pour les dossiers sur réseau",
        "Description[ia]": "Il forni notification de cambio pro dossieres de rete",
        "Description[ie]": "Provide notificationes de cambios por fólderes in li rete",
        "Description[is]": "Tilkynningaforrit fyrir breytingar á fjartengdum netmöppum",
        "Description[it]": "Fornisce notifiche delle modifiche per le cartelle di rete",
        "Description[ka]": "ქსელური საქაღალდეების ცვლილების შესახებ შეტყობინება",
        "Description[nl]": "Levert notificatie voor wijzigingen in netwerkmappen",
        "Description[nn]": "Gjev endringsvarslingar for nettverksmapper",
        "Description[pa]": "ਨੈੱਟਵਰਕ ਫੋਲਡਰਾਂ ਲਈ ਬਦਲਾਅ ਸੂਚਨਾ ਦਿੰਦਾ ਹੈ",
        "Description[pl]": "Powiadamia o zmianach w katalogach sieciowych",
        "Description[pt]": "Oferece uma notificação de mudanças em pastas na rede",
        "Description[pt_BR]": "Fornece notificações de alterações para pastas em rede",
        "Description[ru]": "Отслеживание изменений в сетевых папках",
        "Description[sl]": "Zagotavlja obvestilo o spremembi omrežnih map",
        "Description[ta]": "பிணைய அடைவுகள் மாறினால் அறிவிக்கும்",
        "Description[tr]": "Ağ klasörleri için değişiklik bildirimleri sağlar",
        "Description[uk]": "Сповіщення про зміну стану мережевих тек",
        "Description[vi]": "Cung cấp thông báo thay đổi cho các thư mục mạng",
        "Description[x-test]": "xxProvides change notification for network foldersxx",
        "Description[zh_CN]": "为网络文件夹提供更改通知",
        "Name": "Remote URL Change Notifier",
        "Name[ar]": "منبه تغيير العنوان البعيد",
        "Name[az]": "Serverdə ünvan (URL) dəyişikliyi bildirişi",
        "Name[be]": "Апавяшчэнне пра змену адлеглых URL-адрасоў",
        "Name[bg]": "Уведомител за промени в отдалечени URL-адреси",
        "Name[ca@valencia]": "Notificador de canvi d'URL remot",
        "Name[ca]": "Notificador de canvi d'URL remot",
        "Name[es]": "Notificador de cambio de URL remota",
        "Name[eu]": "Urruneko URL aldaketa jakinarazlea",
        "Name[fr]": "Supprimer le notificateur de changement d'URL",
        "Name[ia]": "Notificator de cambio de URL remote",
        "Name[ie]": "Notificator de cambios de lontan adresses",
        "Name[is]": "Tilkynningar á slóðabreytingum (URL)",
        "Name[it]": "Notificatore del cambiamento dell'URL remoto",
        "Name[ka]": "დაშორებული URL-ის ცვლილებების შეტყობინება",
        "Name[nl]": "Notificatie van wijziging in URL-adres op afstand",
        "Name[nn]": "Varsling for endringar på nettadresser",
        "Name[pa]": "ਰਿਮੋਟ URL ਬਦਲਾਅ ਨੋਟੀਫਾਇਰ",
        "Name[pl]": "Powiadamianie o zmianach zdalnych URL-i",
        "Name[pt]": "Notificação de Mudança do URL Remoto",
        "Name[pt_BR]": "Notificador da alteração de URLs remotas",
        "Name[ru]": "Слежение за изменениями URL",
        "Name[sl]": "Obvestilnik spremembe oddaljenega URL",
        "Name[ta]": "தொலை முகவரி மாற்ற அறிவிப்பி",
        "Name[tr]": "Uzak URL Değişim Bildiricisi",
        "Name[uk]": "Сповіщення про зміну віддаленої адреси (URL)",
        "Name[vi]": "Trình thông báo thay đổi URL ở xa",
        "Name[x-test]": "xxRemote URL Change Notifierxx",
        "Name[zh_CN]": "远程 URL 更改通知器"
    },
    "X-KDE-Kded-autoload": true,
    "X-KDE-Kded-load-on-demand": true
}
